module bitbucket.org/long174/zoom-lib-golang

go 1.13

require (
	github.com/dgrijalva/jwt-go v3.2.0+incompatible // indirect
	github.com/google/go-querystring v1.0.0
	gopkg.in/dgrijalva/jwt-go.v3 v3.2.0
)
